simulation/qsim/top.msim.vcd
$comment
	File created using the following command:
		vcd file top.msim.vcd -direction
$end
$date
	Sun Dec 21 19:51:43 2025
$end
$version
	ModelSim Version 10.1d
$end
$timescale
	1ps
$end
$scope module Block1_vlg_vec_tst $end
$var reg 1 ! clk $end
$var reg 1 " key_locker $end
$var reg 1 # rst_n $end
$var reg 4 $ swc [3:0] $end
$var wire 1 % buzzer $end
$var wire 1 & led1 $end
$var wire 1 ' led2 $end
$var wire 1 ( led3 $end
$var wire 1 ) pin_name4 [3] $end
$var wire 1 * pin_name4 [2] $end
$var wire 1 + pin_name4 [1] $end
$var wire 1 , pin_name4 [0] $end
$var wire 1 - safe_open $end
$var wire 1 . seg [6] $end
$var wire 1 / seg [5] $end
$var wire 1 0 seg [4] $end
$var wire 1 1 seg [3] $end
$var wire 1 2 seg [2] $end
$var wire 1 3 seg [1] $end
$var wire 1 4 seg [0] $end
$var wire 1 5 sel [3] $end
$var wire 1 6 sel [2] $end
$var wire 1 7 sel [1] $end
$var wire 1 8 sel [0] $end
$var wire 1 9 sampler $end
$scope module i1 $end
$var wire 1 : gnd $end
$var wire 1 ; vcc $end
$var wire 1 < unknown $end
$var tri1 1 = devclrn $end
$var tri1 1 > devpor $end
$var tri1 1 ? devoe $end
$var wire 1 @ inst5|cnt_1khz[3]~24_combout $end
$var wire 1 A inst5|cnt_1khz[6]~30_combout $end
$var wire 1 B inst5|cnt_1khz[12]~42_combout $end
$var wire 1 C inst5|cnt_1khz[13]~44_combout $end
$var wire 1 D inst5|cnt_1khz[15]~48_combout $end
$var wire 1 E inst3|Mux2~0_combout $end
$var wire 1 F inst3|Mux2~1_combout $end
$var wire 1 G inst7|state.SET_freeze~q $end
$var wire 1 H inst7|Selector12~1_combout $end
$var wire 1 I inst7|Selector11~0_combout $end
$var wire 1 J inst8|pwd_match~3_combout $end
$var wire 1 K inst8|pwd_match~7_combout $end
$var wire 1 L inst7|Selector6~0_combout $end
$var wire 1 M inst7|state.SET_freeze~0_combout $end
$var wire 1 N inst|Selector4~0_combout $end
$var wire 1 O inst8|Mux17~0_combout $end
$var wire 1 P inst7|Selector2~2_combout $end
$var wire 1 Q inst7|flag~0_combout $end
$var wire 1 R inst7|Selector1~0_combout $end
$var wire 1 S inst7|Selector1~1_combout $end
$var wire 1 T inst7|Selector0~0_combout $end
$var wire 1 U inst7|Selector0~1_combout $end
$var wire 1 V inst7|setting_en~q $end
$var wire 1 W inst1|input_pwd_buf~8_combout $end
$var wire 1 X inst1|input_pwd_buf~9_combout $end
$var wire 1 Y inst1|input_pwd_buf~12_combout $end
$var wire 1 Z inst1|input_pwd_buf~15_combout $end
$var wire 1 [ inst1|input_pwd_buf~16_combout $end
$var wire 1 \ inst7|Selector10~0_combout $end
$var wire 1 ] inst8|pwd_cnt[0]~8_combout $end
$var wire 1 ^ inst7|Selector2~3_combout $end
$var wire 1 _ inst8|saved_pwd[4]~1_combout $end
$var wire 1 ` inst8|saved_pwd[8]~2_combout $end
$var wire 1 a inst8|saved_pwd[12]~3_combout $end
$var wire 1 b clk~input_o $end
$var wire 1 c clk~inputclkctrl_outclk $end
$var wire 1 d inst8|saved_pwd[6]~feeder_combout $end
$var wire 1 e inst8|saved_pwd[10]~feeder_combout $end
$var wire 1 f inst1|new_pwd[4]~feeder_combout $end
$var wire 1 g inst1|new_pwd[7]~feeder_combout $end
$var wire 1 h inst1|new_pwd[6]~feeder_combout $end
$var wire 1 i inst1|new_pwd[8]~feeder_combout $end
$var wire 1 j inst1|new_pwd[10]~feeder_combout $end
$var wire 1 k inst1|new_pwd[13]~feeder_combout $end
$var wire 1 l inst8|saved_pwd[8]~feeder_combout $end
$var wire 1 m inst8|saved_pwd[12]~feeder_combout $end
$var wire 1 n led1~output_o $end
$var wire 1 o led2~output_o $end
$var wire 1 p led3~output_o $end
$var wire 1 q buzzer~output_o $end
$var wire 1 r safe_open~output_o $end
$var wire 1 s pin_name4[3]~output_o $end
$var wire 1 t pin_name4[2]~output_o $end
$var wire 1 u pin_name4[1]~output_o $end
$var wire 1 v pin_name4[0]~output_o $end
$var wire 1 w seg[6]~output_o $end
$var wire 1 x seg[5]~output_o $end
$var wire 1 y seg[4]~output_o $end
$var wire 1 z seg[3]~output_o $end
$var wire 1 { seg[2]~output_o $end
$var wire 1 | seg[1]~output_o $end
$var wire 1 } seg[0]~output_o $end
$var wire 1 ~ sel[3]~output_o $end
$var wire 1 !! sel[2]~output_o $end
$var wire 1 "! sel[1]~output_o $end
$var wire 1 #! sel[0]~output_o $end
$var wire 1 $! inst5|cnt_1khz[0]~18_combout $end
$var wire 1 %! rst_n~input_o $end
$var wire 1 &! rst_n~inputclkctrl_outclk $end
$var wire 1 '! inst5|cnt_1khz[0]~19 $end
$var wire 1 (! inst5|cnt_1khz[1]~21 $end
$var wire 1 )! inst5|cnt_1khz[2]~22_combout $end
$var wire 1 *! inst5|cnt_1khz[2]~23 $end
$var wire 1 +! inst5|cnt_1khz[3]~25 $end
$var wire 1 ,! inst5|cnt_1khz[4]~27 $end
$var wire 1 -! inst5|cnt_1khz[5]~28_combout $end
$var wire 1 .! inst5|cnt_1khz[5]~29 $end
$var wire 1 /! inst5|cnt_1khz[6]~31 $end
$var wire 1 0! inst5|cnt_1khz[7]~32_combout $end
$var wire 1 1! inst5|cnt_1khz[7]~feeder_combout $end
$var wire 1 2! inst5|cnt_1khz[7]~33 $end
$var wire 1 3! inst5|cnt_1khz[8]~35 $end
$var wire 1 4! inst5|cnt_1khz[9]~36_combout $end
$var wire 1 5! inst5|cnt_1khz[9]~37 $end
$var wire 1 6! inst5|cnt_1khz[10]~38_combout $end
$var wire 1 7! inst5|cnt_1khz[10]~39 $end
$var wire 1 8! inst5|cnt_1khz[11]~40_combout $end
$var wire 1 9! inst5|cnt_1khz[11]~41 $end
$var wire 1 :! inst5|cnt_1khz[12]~43 $end
$var wire 1 ;! inst5|cnt_1khz[13]~45 $end
$var wire 1 <! inst5|cnt_1khz[14]~46_combout $end
$var wire 1 =! inst5|cnt_1khz[14]~47 $end
$var wire 1 >! inst5|cnt_1khz[15]~49 $end
$var wire 1 ?! inst5|cnt_1khz[16]~50_combout $end
$var wire 1 @! inst5|cnt_1khz[16]~51 $end
$var wire 1 A! inst5|cnt_1khz[17]~52_combout $end
$var wire 1 B! inst5|LessThan0~0_combout $end
$var wire 1 C! inst5|cnt_1khz[8]~34_combout $end
$var wire 1 D! inst5|LessThan0~1_combout $end
$var wire 1 E! inst5|cnt_1khz[4]~26_combout $end
$var wire 1 F! inst5|cnt_1khz[1]~20_combout $end
$var wire 1 G! inst5|LessThan0~2_combout $end
$var wire 1 H! inst5|LessThan0~3_combout $end
$var wire 1 I! inst5|LessThan0~4_combout $end
$var wire 1 J! inst5|LessThan0~5_combout $end
$var wire 1 K! inst5|clk_1khz~0_combout $end
$var wire 1 L! inst5|clk_1khz~feeder_combout $end
$var wire 1 M! inst5|clk_1khz~q $end
$var wire 1 N! inst5|clk_1khz~clkctrl_outclk $end
$var wire 1 O! swc[1]~input_o $end
$var wire 1 P! inst|key_col_r1[1]~1_combout $end
$var wire 1 Q! swc[3]~input_o $end
$var wire 1 R! inst|key_col_r1[3]~3_combout $end
$var wire 1 S! swc[2]~input_o $end
$var wire 1 T! inst|key_col_r1[2]~2_combout $end
$var wire 1 U! inst|key_col_r2[2]~feeder_combout $end
$var wire 1 V! inst|Equal0~0_combout $end
$var wire 1 W! inst|Selector6~0_combout $end
$var wire 1 X! inst|current_state.S_WAIT_RELEASE~q $end
$var wire 1 Y! inst|Selector4~1_combout $end
$var wire 1 Z! inst|current_state.S_IDLE~q $end
$var wire 1 [! inst|scan_delay_cnt[0]~2_combout $end
$var wire 1 \! inst|scan_delay_cnt[1]~1_combout $end
$var wire 1 ]! inst|Selector5~2_combout $end
$var wire 1 ^! inst|current_state.S_CONFIRM~q $end
$var wire 1 _! swc[0]~input_o $end
$var wire 1 `! inst|key_col_r1[0]~0_combout $end
$var wire 1 a! inst|WideOr0~0_combout $end
$var wire 1 b! inst|Mux2~0_combout $end
$var wire 1 c! inst|Mux3~0_combout $end
$var wire 1 d! inst8|Mux14~0_combout $end
$var wire 1 e! inst|key_value[0]~0_combout $end
$var wire 1 f! inst|Mux0~0_combout $end
$var wire 1 g! inst|Mux1~0_combout $end
$var wire 1 h! inst|Mux1~1_combout $end
$var wire 1 i! inst|key_valid~q $end
$var wire 1 j! inst8|pwd_cnt[0]~4_combout $end
$var wire 1 k! inst8|pwd_cnt[0]~5_combout $end
$var wire 1 l! inst8|pwd_cnt[0]~6_combout $end
$var wire 1 m! inst8|pwd_cnt[0]~7_combout $end
$var wire 1 n! inst8|input_pwd[13]~0_combout $end
$var wire 1 o! inst8|Mux16~0_combout $end
$var wire 1 p! inst8|pwd_cnt[1]~2_combout $end
$var wire 1 q! inst8|Mux16~1_combout $end
$var wire 1 r! inst8|pwd_cnt[0]~3_combout $end
$var wire 1 s! inst8|input_pwd[0]~1_combout $end
$var wire 1 t! inst8|input_pwd[0]~2_combout $end
$var wire 1 u! inst8|Mux2~0_combout $end
$var wire 1 v! inst8|Mux6~0_combout $end
$var wire 1 w! inst8|Mux10~0_combout $end
$var wire 1 x! inst7|always0~3_combout $end
$var wire 1 y! inst7|always0~1_combout $end
$var wire 1 z! inst1|setting_state~7_combout $end
$var wire 1 {! inst1|setting_state.INPUT_NEW~q $end
$var wire 1 |! inst1|input_pwd_buf~7_combout $end
$var wire 1 }! inst7|always0~2_combout $end
$var wire 1 ~! inst1|input_pwd_buf[14]~4_combout $end
$var wire 1 !" inst1|new_pwd[5]~feeder_combout $end
$var wire 1 "" inst7|always0~0_combout $end
$var wire 1 #" inst1|pwd_save~0_combout $end
$var wire 1 $" inst1|pwd_save~feeder_combout $end
$var wire 1 %" inst1|pwd_save~q $end
$var wire 1 &" inst8|Mux15~0_combout $end
$var wire 1 '" inst8|Mux15~1_combout $end
$var wire 1 (" inst8|Mux3~0_combout $end
$var wire 1 )" inst8|Mux7~0_combout $end
$var wire 1 *" inst8|Mux11~0_combout $end
$var wire 1 +" inst8|pwd_match~2_combout $end
$var wire 1 ," inst1|input_pwd_buf~19_combout $end
$var wire 1 -" inst1|new_pwd[2]~feeder_combout $end
$var wire 1 ." inst1|input_pwd_buf~6_combout $end
$var wire 1 /" inst1|new_pwd[3]~feeder_combout $end
$var wire 1 0" inst8|Mux1~0_combout $end
$var wire 1 1" inst8|Mux5~0_combout $end
$var wire 1 2" inst8|Mux9~0_combout $end
$var wire 1 3" inst8|Mux13~0_combout $end
$var wire 1 4" inst8|pwd_match~1_combout $end
$var wire 1 5" inst1|input_pwd_buf~5_combout $end
$var wire 1 6" inst1|new_pwd[0]~feeder_combout $end
$var wire 1 7" inst8|saved_pwd[0]~0_combout $end
$var wire 1 8" inst1|input_pwd_buf~3_combout $end
$var wire 1 9" inst8|pwd_match~0_combout $end
$var wire 1 :" inst8|pwd_match~4_combout $end
$var wire 1 ;" inst1|input_pwd_buf~13_combout $end
$var wire 1 <" inst1|new_pwd[11]~feeder_combout $end
$var wire 1 =" inst8|Mux0~0_combout $end
$var wire 1 >" inst8|Mux12~0_combout $end
$var wire 1 ?" inst8|Mux8~0_combout $end
$var wire 1 @" inst8|Mux4~0_combout $end
$var wire 1 A" inst8|pwd_match~6_combout $end
$var wire 1 B" inst1|input_pwd_buf~11_combout $end
$var wire 1 C" inst1|new_pwd[9]~feeder_combout $end
$var wire 1 D" inst8|pwd_match~5_combout $end
$var wire 1 E" inst1|input_pwd_buf~10_combout $end
$var wire 1 F" inst1|input_pwd_buf~14_combout $end
$var wire 1 G" inst1|input_pwd_buf~18_combout $end
$var wire 1 H" inst1|new_pwd[14]~feeder_combout $end
$var wire 1 I" inst8|saved_pwd[14]~feeder_combout $end
$var wire 1 J" inst1|input_pwd_buf~17_combout $end
$var wire 1 K" inst1|new_pwd[15]~feeder_combout $end
$var wire 1 L" inst8|pwd_match~8_combout $end
$var wire 1 M" inst8|pwd_match~9_combout $end
$var wire 1 N" inst8|pwd_match~10_combout $end
$var wire 1 O" inst8|pwd_match~q $end
$var wire 1 P" inst7|Selector7~0_combout $end
$var wire 1 Q" inst7|Selector7~1_combout $end
$var wire 1 R" inst7|state.SETTING~q $end
$var wire 1 S" inst7|Selector3~2_combout $end
$var wire 1 T" inst7|Selector3~1_combout $end
$var wire 1 U" inst7|Selector3~3_combout $end
$var wire 1 V" inst7|Selector3~4_combout $end
$var wire 1 W" inst7|state.IDLE~q $end
$var wire 1 X" inst7|Selector16~2_combout $end
$var wire 1 Y" inst1|always0~1_combout $end
$var wire 1 Z" inst7|Selector4~0_combout $end
$var wire 1 [" inst7|state.INPUT~q $end
$var wire 1 \" inst7|Selector5~0_combout $end
$var wire 1 ]" inst7|state.CORRECT~q $end
$var wire 1 ^" inst7|Selector16~0_combout $end
$var wire 1 _" inst1|always0~0_combout $end
$var wire 1 `" inst7|Selector12~0_combout $end
$var wire 1 a" inst7|Selector12~2_combout $end
$var wire 1 b" inst7|led1~q $end
$var wire 1 c" inst7|Selector14~0_combout $end
$var wire 1 d" inst7|Selector6~1_combout $end
$var wire 1 e" inst7|Selector6~2_combout $end
$var wire 1 f" inst7|state.ERROR~q $end
$var wire 1 g" inst7|Selector3~0_combout $end
$var wire 1 h" inst7|Selector13~1_combout $end
$var wire 1 i" inst7|Selector13~0_combout $end
$var wire 1 j" inst7|Selector13~2_combout $end
$var wire 1 k" inst7|led2~q $end
$var wire 1 l" inst7|Selector11~1_combout $end
$var wire 1 m" inst7|led3~q $end
$var wire 1 n" inst7|Selector14~1_combout $end
$var wire 1 o" inst7|Selector14~2_combout $end
$var wire 1 p" inst7|buzzer~q $end
$var wire 1 q" inst4|buzzer_out~0_combout $end
$var wire 1 r" inst4|buzzer_out~q $end
$var wire 1 s" key_locker~input_o $end
$var wire 1 t" inst7|Selector15~0_combout $end
$var wire 1 u" inst7|safe_open~q $end
$var wire 1 v" inst|Selector8~0_combout $end
$var wire 1 w" inst|scan_delay_cnt[1]~0_combout $end
$var wire 1 x" inst|scan_row[0]~0_combout $end
$var wire 1 y" inst|Selector7~0_combout $end
$var wire 1 z" inst|Selector7~1_combout $end
$var wire 1 {" inst|Selector0~0_combout $end
$var wire 1 |" inst|Selector0~1_combout $end
$var wire 1 }" inst|Selector1~0_combout $end
$var wire 1 ~" inst|Selector2~0_combout $end
$var wire 1 !# inst|Selector3~0_combout $end
$var wire 1 "# inst3|dig_cnt[0]~0_combout $end
$var wire 1 ## inst3|seg~9_combout $end
$var wire 1 $# inst7|Selector16~1_combout $end
$var wire 1 %# inst7|Selector16~3_combout $end
$var wire 1 &# inst7|show_erro~q $end
$var wire 1 '# inst3|Mux0~0_combout $end
$var wire 1 (# inst3|Mux0~1_combout $end
$var wire 1 )# inst3|Mux1~0_combout $end
$var wire 1 *# inst3|Mux1~1_combout $end
$var wire 1 +# inst3|Mux3~0_combout $end
$var wire 1 ,# inst3|Mux3~1_combout $end
$var wire 1 -# inst3|WideOr0~0_combout $end
$var wire 1 .# inst3|seg[6]~10_combout $end
$var wire 1 /# inst3|WideOr1~0_combout $end
$var wire 1 0# inst3|WideOr1~1_combout $end
$var wire 1 1# inst3|WideOr2~0_combout $end
$var wire 1 2# inst3|seg[4]~11_combout $end
$var wire 1 3# inst3|WideOr3~0_combout $end
$var wire 1 4# inst3|WideOr3~1_combout $end
$var wire 1 5# inst3|WideOr4~0_combout $end
$var wire 1 6# inst3|seg[2]~12_combout $end
$var wire 1 7# inst3|WideOr5~0_combout $end
$var wire 1 8# inst3|seg[1]~13_combout $end
$var wire 1 9# inst3|WideOr6~0_combout $end
$var wire 1 :# inst3|seg[0]~8_combout $end
$var wire 1 ;# inst3|Decoder0~1_combout $end
$var wire 1 <# inst3|Decoder0~2_combout $end
$var wire 1 =# inst3|Decoder0~3_combout $end
$var wire 1 ># inst3|Decoder0~0_combout $end
$var wire 1 ?# inst7|flag [2] $end
$var wire 1 @# inst7|flag [1] $end
$var wire 1 A# inst7|flag [0] $end
$var wire 1 B# inst5|cnt_1khz [17] $end
$var wire 1 C# inst5|cnt_1khz [16] $end
$var wire 1 D# inst5|cnt_1khz [15] $end
$var wire 1 E# inst5|cnt_1khz [14] $end
$var wire 1 F# inst5|cnt_1khz [13] $end
$var wire 1 G# inst5|cnt_1khz [12] $end
$var wire 1 H# inst5|cnt_1khz [11] $end
$var wire 1 I# inst5|cnt_1khz [10] $end
$var wire 1 J# inst5|cnt_1khz [9] $end
$var wire 1 K# inst5|cnt_1khz [8] $end
$var wire 1 L# inst5|cnt_1khz [7] $end
$var wire 1 M# inst5|cnt_1khz [6] $end
$var wire 1 N# inst5|cnt_1khz [5] $end
$var wire 1 O# inst5|cnt_1khz [4] $end
$var wire 1 P# inst5|cnt_1khz [3] $end
$var wire 1 Q# inst5|cnt_1khz [2] $end
$var wire 1 R# inst5|cnt_1khz [1] $end
$var wire 1 S# inst5|cnt_1khz [0] $end
$var wire 1 T# inst|key_value_latch [3] $end
$var wire 1 U# inst|key_value_latch [2] $end
$var wire 1 V# inst|key_value_latch [1] $end
$var wire 1 W# inst|key_value_latch [0] $end
$var wire 1 X# inst1|new_pwd [15] $end
$var wire 1 Y# inst1|new_pwd [14] $end
$var wire 1 Z# inst1|new_pwd [13] $end
$var wire 1 [# inst1|new_pwd [12] $end
$var wire 1 \# inst1|new_pwd [11] $end
$var wire 1 ]# inst1|new_pwd [10] $end
$var wire 1 ^# inst1|new_pwd [9] $end
$var wire 1 _# inst1|new_pwd [8] $end
$var wire 1 `# inst1|new_pwd [7] $end
$var wire 1 a# inst1|new_pwd [6] $end
$var wire 1 b# inst1|new_pwd [5] $end
$var wire 1 c# inst1|new_pwd [4] $end
$var wire 1 d# inst1|new_pwd [3] $end
$var wire 1 e# inst1|new_pwd [2] $end
$var wire 1 f# inst1|new_pwd [1] $end
$var wire 1 g# inst1|new_pwd [0] $end
$var wire 1 h# inst1|input_pwd_buf [15] $end
$var wire 1 i# inst1|input_pwd_buf [14] $end
$var wire 1 j# inst1|input_pwd_buf [13] $end
$var wire 1 k# inst1|input_pwd_buf [12] $end
$var wire 1 l# inst1|input_pwd_buf [11] $end
$var wire 1 m# inst1|input_pwd_buf [10] $end
$var wire 1 n# inst1|input_pwd_buf [9] $end
$var wire 1 o# inst1|input_pwd_buf [8] $end
$var wire 1 p# inst1|input_pwd_buf [7] $end
$var wire 1 q# inst1|input_pwd_buf [6] $end
$var wire 1 r# inst1|input_pwd_buf [5] $end
$var wire 1 s# inst1|input_pwd_buf [4] $end
$var wire 1 t# inst1|input_pwd_buf [3] $end
$var wire 1 u# inst1|input_pwd_buf [2] $end
$var wire 1 v# inst1|input_pwd_buf [1] $end
$var wire 1 w# inst1|input_pwd_buf [0] $end
$var wire 1 x# inst|key_row [3] $end
$var wire 1 y# inst|key_row [2] $end
$var wire 1 z# inst|key_row [1] $end
$var wire 1 {# inst|key_row [0] $end
$var wire 1 |# inst|pressed_row [1] $end
$var wire 1 }# inst|pressed_row [0] $end
$var wire 1 ~# inst|key_value [3] $end
$var wire 1 !$ inst|key_value [2] $end
$var wire 1 "$ inst|key_value [1] $end
$var wire 1 #$ inst|key_value [0] $end
$var wire 1 $$ inst|key_col_r1 [3] $end
$var wire 1 %$ inst|key_col_r1 [2] $end
$var wire 1 &$ inst|key_col_r1 [1] $end
$var wire 1 '$ inst|key_col_r1 [0] $end
$var wire 1 ($ inst8|pwd_cnt [2] $end
$var wire 1 )$ inst8|pwd_cnt [1] $end
$var wire 1 *$ inst8|pwd_cnt [0] $end
$var wire 1 +$ inst3|dig_cnt [1] $end
$var wire 1 ,$ inst3|dig_cnt [0] $end
$var wire 1 -$ inst8|input_pwd [15] $end
$var wire 1 .$ inst8|input_pwd [14] $end
$var wire 1 /$ inst8|input_pwd [13] $end
$var wire 1 0$ inst8|input_pwd [12] $end
$var wire 1 1$ inst8|input_pwd [11] $end
$var wire 1 2$ inst8|input_pwd [10] $end
$var wire 1 3$ inst8|input_pwd [9] $end
$var wire 1 4$ inst8|input_pwd [8] $end
$var wire 1 5$ inst8|input_pwd [7] $end
$var wire 1 6$ inst8|input_pwd [6] $end
$var wire 1 7$ inst8|input_pwd [5] $end
$var wire 1 8$ inst8|input_pwd [4] $end
$var wire 1 9$ inst8|input_pwd [3] $end
$var wire 1 :$ inst8|input_pwd [2] $end
$var wire 1 ;$ inst8|input_pwd [1] $end
$var wire 1 <$ inst8|input_pwd [0] $end
$var wire 1 =$ inst|scan_delay_cnt [1] $end
$var wire 1 >$ inst|scan_delay_cnt [0] $end
$var wire 1 ?$ inst|key_col_r2 [3] $end
$var wire 1 @$ inst|key_col_r2 [2] $end
$var wire 1 A$ inst|key_col_r2 [1] $end
$var wire 1 B$ inst|key_col_r2 [0] $end
$var wire 1 C$ inst|scan_row [1] $end
$var wire 1 D$ inst|scan_row [0] $end
$var wire 1 E$ inst8|saved_pwd [15] $end
$var wire 1 F$ inst8|saved_pwd [14] $end
$var wire 1 G$ inst8|saved_pwd [13] $end
$var wire 1 H$ inst8|saved_pwd [12] $end
$var wire 1 I$ inst8|saved_pwd [11] $end
$var wire 1 J$ inst8|saved_pwd [10] $end
$var wire 1 K$ inst8|saved_pwd [9] $end
$var wire 1 L$ inst8|saved_pwd [8] $end
$var wire 1 M$ inst8|saved_pwd [7] $end
$var wire 1 N$ inst8|saved_pwd [6] $end
$var wire 1 O$ inst8|saved_pwd [5] $end
$var wire 1 P$ inst8|saved_pwd [4] $end
$var wire 1 Q$ inst8|saved_pwd [3] $end
$var wire 1 R$ inst8|saved_pwd [2] $end
$var wire 1 S$ inst8|saved_pwd [1] $end
$var wire 1 T$ inst8|saved_pwd [0] $end
$upscope $end
$upscope $end
$enddefinitions $end
#0
$dumpvars
0!
0"
0#
b0 $
1"#
0##
0$#
0%#
0&#
0'#
0(#
0)#
0*#
0+#
0,#
0-#
0.#
0/#
10#
01#
02#
03#
14#
05#
16#
07#
18#
09#
0:#
0;#
0<#
0=#
0>#
0A#
0@#
0?#
0S#
0R#
0Q#
0P#
0O#
0N#
0M#
0L#
0K#
0J#
0I#
0H#
0G#
0F#
0E#
0D#
0C#
0B#
0W#
0V#
0U#
0T#
0g#
0f#
0e#
0d#
0c#
0b#
0a#
0`#
0_#
0^#
0]#
0\#
0[#
0Z#
0Y#
0X#
0w#
0v#
0u#
0t#
0s#
0r#
0q#
0p#
0o#
0n#
0m#
0l#
0k#
0j#
0i#
0h#
0{#
0z#
0y#
0x#
0}#
0|#
0#$
0"$
0!$
0~#
0'$
0&$
0%$
0$$
0*$
0)$
0($
0,$
0+$
0<$
0;$
0:$
09$
08$
07$
06$
05$
04$
03$
02$
01$
00$
0/$
0.$
0-$
0>$
0=$
0B$
0A$
0@$
0?$
0D$
0C$
0T$
0S$
0R$
0Q$
0P$
0O$
0N$
0M$
0L$
0K$
0J$
0I$
0H$
0G$
0F$
0E$
0%
1&
1'
1(
1,
1+
1*
1)
0-
04
13
12
11
10
1/
1.
08
17
16
15
x9
0:
1;
x<
1=
1>
1?
0@
0A
0B
0C
0D
0E
0F
0G
1H
0I
1J
0K
1L
0M
1N
0O
0P
0Q
0R
0S
0T
0U
0V
0W
0X
0Y
0Z
0[
0\
0]
0^
1_
1`
1a
0b
0c
0d
0e
0f
0g
0h
0i
0j
0k
1l
1m
1n
1o
1p
0q
0r
1s
1t
1u
1v
1w
1x
1y
1z
1{
1|
0}
1~
1!!
1"!
0#!
1$!
0%!
0&!
0'!
1(!
0)!
0*!
1+!
0,!
0-!
1.!
0/!
00!
01!
12!
03!
04!
15!
06!
07!
08!
19!
0:!
1;!
0<!
0=!
1>!
0?!
0@!
0A!
1B!
0C!
1D!
0E!
0F!
1G!
0H!
1I!
0J!
0K!
0L!
0M!
0N!
0O!
1P!
0Q!
1R!
0S!
1T!
0U!
0V!
0W!
0X!
0Y!
0Z!
1[!
0\!
0]!
0^!
0_!
1`!
0a!
0b!
0c!
1d!
1e!
0f!
0g!
0h!
0i!
0j!
0k!
0l!
0m!
1n!
0o!
0p!
0q!
0r!
1s!
0t!
0u!
0v!
0w!
0x!
0y!
0z!
0{!
0|!
0}!
1~!
0!"
0""
0#"
0$"
0%"
0&"
0'"
0("
0)"
0*"
0+"
0,"
0-"
0."
0/"
00"
01"
02"
03"
14"
05"
06"
17"
08"
09"
0:"
0;"
0<"
0="
0>"
0?"
0@"
1A"
0B"
0C"
0D"
0E"
0F"
0G"
0H"
0I"
0J"
0K"
1L"
0M"
0N"
0O"
0P"
0Q"
0R"
0S"
1T"
0U"
0V"
0W"
0X"
1Y"
0Z"
0["
0\"
0]"
0^"
0_"
1`"
0a"
0b"
0c"
0d"
0e"
0f"
0g"
1h"
0i"
0j"
0k"
0l"
0m"
0n"
0o"
0p"
0q"
0r"
0s"
0t"
0u"
1v"
0w"
0x"
0y"
0z"
0{"
0|"
0}"
0~"
1!#
$end
#10000
1!
1"
1#
b1 $
1b
1s"
1%!
1_!
1c
1&!
09
0`!
#20000
b11 $
0!
0"
0#
b10 $
0_!
1O!
0b
0s"
0%!
0c
0&!
19
1`!
0P!
#30000
1!
1"
1#
b11 $
1b
1s"
1%!
1_!
1c
1&!
09
0`!
#40000
b111 $
b101 $
0!
0"
0#
b100 $
0_!
0O!
1S!
0b
0s"
0%!
0c
0&!
19
1`!
1P!
0T!
#50000
1!
1"
1#
b101 $
1b
1s"
1%!
1_!
1c
1&!
09
0`!
#60000
b111 $
0!
0"
0#
b110 $
0_!
1O!
0b
0s"
0%!
0c
0&!
19
1`!
0P!
#70000
1!
1"
1#
b111 $
1b
1s"
1%!
1_!
1c
1&!
09
0`!
#80000
b1111 $
b1011 $
b1001 $
0!
0"
0#
b1000 $
0_!
0O!
0S!
1Q!
0b
0s"
0%!
0c
0&!
19
1`!
1P!
1T!
0R!
#90000
1!
1"
1#
b1001 $
1b
1s"
1%!
1_!
1c
1&!
09
0`!
#100000
b1011 $
0!
0"
0#
b1010 $
0_!
1O!
0b
0s"
0%!
0c
0&!
19
1`!
0P!
#110000
1!
1"
1#
b1011 $
1b
1s"
1%!
1_!
1c
1&!
09
0`!
#120000
b1111 $
b1101 $
0!
0"
0#
b1100 $
0_!
0O!
1S!
0b
0s"
0%!
0c
0&!
19
1`!
1P!
0T!
#130000
1!
1"
1#
b1101 $
1b
1s"
1%!
1_!
1c
1&!
09
0`!
#140000
b1111 $
0!
0"
0#
b1110 $
0_!
1O!
0b
0s"
0%!
0c
0&!
19
1`!
0P!
#150000
1!
1"
1#
b1111 $
1b
1s"
1%!
1_!
1c
1&!
09
0`!
#160000
b111 $
b11 $
b1 $
0!
0"
0#
b0 $
0_!
0O!
0S!
0Q!
0b
0s"
0%!
0c
0&!
19
1`!
1P!
1T!
1R!
#170000
1!
1"
1#
b1 $
1b
1s"
1%!
1_!
1c
1&!
09
0`!
#180000
b11 $
0!
0"
0#
b10 $
0_!
1O!
0b
0s"
0%!
0c
0&!
19
1`!
0P!
#190000
1!
1"
1#
b11 $
1b
1s"
1%!
1_!
1c
1&!
09
0`!
#200000
b111 $
b101 $
0!
0"
0#
b100 $
0_!
0O!
1S!
0b
0s"
0%!
0c
0&!
19
1`!
1P!
0T!
#210000
1!
1"
1#
b101 $
1b
1s"
1%!
1_!
1c
1&!
09
0`!
#220000
b111 $
0!
0"
0#
b110 $
0_!
1O!
0b
0s"
0%!
0c
0&!
19
1`!
0P!
#230000
1!
1"
1#
b111 $
1b
1s"
1%!
1_!
1c
1&!
09
0`!
#240000
b1111 $
b1011 $
b1001 $
0!
0"
0#
b1000 $
0_!
0O!
0S!
1Q!
0b
0s"
0%!
0c
0&!
19
1`!
1P!
1T!
0R!
#250000
1!
1"
1#
b1001 $
1b
1s"
1%!
1_!
1c
1&!
09
0`!
#260000
b1011 $
0!
0"
0#
b1010 $
0_!
1O!
0b
0s"
0%!
0c
0&!
19
1`!
0P!
#270000
1!
1"
1#
b1011 $
1b
1s"
1%!
1_!
1c
1&!
09
0`!
#280000
b1111 $
b1101 $
0!
0"
0#
b1100 $
0_!
0O!
1S!
0b
0s"
0%!
0c
0&!
19
1`!
1P!
0T!
#290000
1!
1"
1#
b1101 $
1b
1s"
1%!
1_!
1c
1&!
09
0`!
#300000
b1111 $
0!
0"
0#
b1110 $
0_!
1O!
0b
0s"
0%!
0c
0&!
19
1`!
0P!
#310000
1!
1"
1#
b1111 $
1b
1s"
1%!
1_!
1c
1&!
09
0`!
#320000
b111 $
b11 $
b1 $
0!
0"
0#
b0 $
0_!
0O!
0S!
0Q!
0b
0s"
0%!
0c
0&!
19
1`!
1P!
1T!
1R!
#330000
1!
1"
1#
b1 $
1b
1s"
1%!
1_!
1c
1&!
09
0`!
#340000
b11 $
0!
0"
0#
b10 $
0_!
1O!
0b
0s"
0%!
0c
0&!
19
1`!
0P!
#350000
1!
1"
1#
b11 $
1b
1s"
1%!
1_!
1c
1&!
09
0`!
#360000
b111 $
b101 $
0!
0"
0#
b100 $
0_!
0O!
1S!
0b
0s"
0%!
0c
0&!
19
1`!
1P!
0T!
#370000
1!
1"
1#
b101 $
1b
1s"
1%!
1_!
1c
1&!
09
0`!
#380000
b111 $
0!
0"
0#
b110 $
0_!
1O!
0b
0s"
0%!
0c
0&!
19
1`!
0P!
#390000
1!
1"
1#
b111 $
1b
1s"
1%!
1_!
1c
1&!
09
0`!
#400000
b1111 $
b1011 $
b1001 $
0!
0"
0#
b1000 $
0_!
0O!
0S!
1Q!
0b
0s"
0%!
0c
0&!
19
1`!
1P!
1T!
0R!
#410000
1!
1"
1#
b1001 $
1b
1s"
1%!
1_!
1c
1&!
09
0`!
